contador/simulation/qsim/contador.msim.vcd
$comment
	File created using the following command:
		vcd file contador.msim.vcd -direction
$end
$date
	Thu Apr  6 15:27:47 2023
$end
$version
	ModelSim Version 2020.1
$end
$timescale
	1ps
$end

$scope module contador_vhd_vec_tst $end
$var wire 1 ! CLOCK_50 $end
$var wire 1 " KEY [3] $end
$var wire 1 # KEY [2] $end
$var wire 1 $ KEY [1] $end
$var wire 1 % KEY [0] $end
$var wire 1 & LEDR [9] $end
$var wire 1 ' LEDR [8] $end
$var wire 1 ( LEDR [7] $end
$var wire 1 ) LEDR [6] $end
$var wire 1 * LEDR [5] $end
$var wire 1 + LEDR [4] $end
$var wire 1 , LEDR [3] $end
$var wire 1 - LEDR [2] $end
$var wire 1 . LEDR [1] $end
$var wire 1 / LEDR [0] $end
$var wire 1 0 PC_OUT [8] $end
$var wire 1 1 PC_OUT [7] $end
$var wire 1 2 PC_OUT [6] $end
$var wire 1 3 PC_OUT [5] $end
$var wire 1 4 PC_OUT [4] $end
$var wire 1 5 PC_OUT [3] $end
$var wire 1 6 PC_OUT [2] $end
$var wire 1 7 PC_OUT [1] $end
$var wire 1 8 PC_OUT [0] $end
$var wire 1 9 SW [12] $end
$var wire 1 : SW [11] $end
$var wire 1 ; SW [10] $end
$var wire 1 < SW [9] $end
$var wire 1 = SW [8] $end
$var wire 1 > SW [7] $end
$var wire 1 ? SW [6] $end
$var wire 1 @ SW [5] $end
$var wire 1 A SW [4] $end
$var wire 1 B SW [3] $end
$var wire 1 C SW [2] $end
$var wire 1 D SW [1] $end
$var wire 1 E SW [0] $end

$scope module i1 $end
$var wire 1 F gnd $end
$var wire 1 G vcc $end
$var wire 1 H unknown $end
$var wire 1 I devoe $end
$var wire 1 J devclrn $end
$var wire 1 K devpor $end
$var wire 1 L ww_devoe $end
$var wire 1 M ww_devclrn $end
$var wire 1 N ww_devpor $end
$var wire 1 O ww_CLOCK_50 $end
$var wire 1 P ww_KEY [3] $end
$var wire 1 Q ww_KEY [2] $end
$var wire 1 R ww_KEY [1] $end
$var wire 1 S ww_KEY [0] $end
$var wire 1 T ww_SW [12] $end
$var wire 1 U ww_SW [11] $end
$var wire 1 V ww_SW [10] $end
$var wire 1 W ww_SW [9] $end
$var wire 1 X ww_SW [8] $end
$var wire 1 Y ww_SW [7] $end
$var wire 1 Z ww_SW [6] $end
$var wire 1 [ ww_SW [5] $end
$var wire 1 \ ww_SW [4] $end
$var wire 1 ] ww_SW [3] $end
$var wire 1 ^ ww_SW [2] $end
$var wire 1 _ ww_SW [1] $end
$var wire 1 ` ww_SW [0] $end
$var wire 1 a ww_PC_OUT [8] $end
$var wire 1 b ww_PC_OUT [7] $end
$var wire 1 c ww_PC_OUT [6] $end
$var wire 1 d ww_PC_OUT [5] $end
$var wire 1 e ww_PC_OUT [4] $end
$var wire 1 f ww_PC_OUT [3] $end
$var wire 1 g ww_PC_OUT [2] $end
$var wire 1 h ww_PC_OUT [1] $end
$var wire 1 i ww_PC_OUT [0] $end
$var wire 1 j ww_LEDR [9] $end
$var wire 1 k ww_LEDR [8] $end
$var wire 1 l ww_LEDR [7] $end
$var wire 1 m ww_LEDR [6] $end
$var wire 1 n ww_LEDR [5] $end
$var wire 1 o ww_LEDR [4] $end
$var wire 1 p ww_LEDR [3] $end
$var wire 1 q ww_LEDR [2] $end
$var wire 1 r ww_LEDR [1] $end
$var wire 1 s ww_LEDR [0] $end
$var wire 1 t \KEY[1]~input_o\ $end
$var wire 1 u \KEY[2]~input_o\ $end
$var wire 1 v \KEY[3]~input_o\ $end
$var wire 1 w \SW[0]~output_o\ $end
$var wire 1 x \SW[1]~output_o\ $end
$var wire 1 y \SW[2]~output_o\ $end
$var wire 1 z \SW[3]~output_o\ $end
$var wire 1 { \SW[4]~output_o\ $end
$var wire 1 | \SW[5]~output_o\ $end
$var wire 1 } \SW[6]~output_o\ $end
$var wire 1 ~ \SW[7]~output_o\ $end
$var wire 1 !! \SW[8]~output_o\ $end
$var wire 1 "! \SW[9]~output_o\ $end
$var wire 1 #! \SW[10]~output_o\ $end
$var wire 1 $! \SW[11]~output_o\ $end
$var wire 1 %! \SW[12]~output_o\ $end
$var wire 1 &! \PC_OUT[0]~output_o\ $end
$var wire 1 '! \PC_OUT[1]~output_o\ $end
$var wire 1 (! \PC_OUT[2]~output_o\ $end
$var wire 1 )! \PC_OUT[3]~output_o\ $end
$var wire 1 *! \PC_OUT[4]~output_o\ $end
$var wire 1 +! \PC_OUT[5]~output_o\ $end
$var wire 1 ,! \PC_OUT[6]~output_o\ $end
$var wire 1 -! \PC_OUT[7]~output_o\ $end
$var wire 1 .! \PC_OUT[8]~output_o\ $end
$var wire 1 /! \LEDR[0]~output_o\ $end
$var wire 1 0! \LEDR[1]~output_o\ $end
$var wire 1 1! \LEDR[2]~output_o\ $end
$var wire 1 2! \LEDR[3]~output_o\ $end
$var wire 1 3! \LEDR[4]~output_o\ $end
$var wire 1 4! \LEDR[5]~output_o\ $end
$var wire 1 5! \LEDR[6]~output_o\ $end
$var wire 1 6! \LEDR[7]~output_o\ $end
$var wire 1 7! \LEDR[8]~output_o\ $end
$var wire 1 8! \LEDR[9]~output_o\ $end
$var wire 1 9! \CLOCK_50~input_o\ $end
$var wire 1 :! \Processador|incrementaPC|Add0~2\ $end
$var wire 1 ;! \Processador|incrementaPC|Add0~5_sumout\ $end
$var wire 1 <! \Processador|incrementaPC|Add0~18\ $end
$var wire 1 =! \Processador|incrementaPC|Add0~21_sumout\ $end
$var wire 1 >! \Processador|incrementaPC|Add0~22\ $end
$var wire 1 ?! \Processador|incrementaPC|Add0~25_sumout\ $end
$var wire 1 @! \Processador|ROM1|memROM~5_combout\ $end
$var wire 1 A! \Processador|ROM1|memROM~10_combout\ $end
$var wire 1 B! \Processador|ROM1|memROM~4_combout\ $end
$var wire 1 C! \Processador|ROM1|memROM~6_combout\ $end
$var wire 1 D! \Processador|ROM1|memROM~7_combout\ $end
$var wire 1 E! \Processador|decoder|Equal10~0_combout\ $end
$var wire 1 F! \Processador|incrementaPC|Add0~26\ $end
$var wire 1 G! \Processador|incrementaPC|Add0~29_sumout\ $end
$var wire 1 H! \Processador|incrementaPC|Add0~30\ $end
$var wire 1 I! \Processador|incrementaPC|Add0~33_sumout\ $end
$var wire 1 J! \Processador|ROM1|memROM~8_combout\ $end
$var wire 1 K! \Processador|ROM1|memROM~14_combout\ $end
$var wire 1 L! \Processador|ROM1|memROM~0_combout\ $end
$var wire 1 M! \Processador|ROM1|memROM~9_combout\ $end
$var wire 1 N! \Processador|ROM1|memROM~13_combout\ $end
$var wire 1 O! \Processador|ROM1|memROM~1_combout\ $end
$var wire 1 P! \Processador|ROM1|memROM~2_combout\ $end
$var wire 1 Q! \Processador|incrementaPC|Add0~6\ $end
$var wire 1 R! \Processador|incrementaPC|Add0~9_sumout\ $end
$var wire 1 S! \Processador|incrementaPC|Add0~10\ $end
$var wire 1 T! \Processador|incrementaPC|Add0~13_sumout\ $end
$var wire 1 U! \Processador|ROM1|memROM~11_combout\ $end
$var wire 1 V! \Processador|ROM1|memROM~12_combout\ $end
$var wire 1 W! \Processador|incrementaPC|Add0~14\ $end
$var wire 1 X! \Processador|incrementaPC|Add0~17_sumout\ $end
$var wire 1 Y! \Processador|ROM1|memROM~15_combout\ $end
$var wire 1 Z! \Processador|ROM1|memROM~3_combout\ $end
$var wire 1 [! \Processador|incrementaPC|Add0~1_sumout\ $end
$var wire 1 \! \Processador|decoder|saida[6]~0_combout\ $end
$var wire 1 ]! \Processador|decoder|Equal10~1_combout\ $end
$var wire 1 ^! \KEY[0]~input_o\ $end
$var wire 1 _! \RAM|ram~571_combout\ $end
$var wire 1 `! \RAM|ram~15_q\ $end
$var wire 1 a! \RAM|process_0~0_combout\ $end
$var wire 1 b! \RAM|ram~559_combout\ $end
$var wire 1 c! \RAM|ram~560_combout\ $end
$var wire 1 d! \RAM|ram~31_q\ $end
$var wire 1 e! \RAM|ram~527_combout\ $end
$var wire 1 f! \RAM|ram~561_combout\ $end
$var wire 1 g! \RAM|ram~562_combout\ $end
$var wire 1 h! \RAM|ram~23_q\ $end
$var wire 1 i! \RAM|ram~528_combout\ $end
$var wire 1 j! \RAM|ram~529_combout\ $end
$var wire 1 k! \RAM|ram~558_combout\ $end
$var wire 1 l! \Processador|ULA1|Add0~34_cout\ $end
$var wire 1 m! \Processador|ULA1|Add0~1_sumout\ $end
$var wire 1 n! \Processador|MUX1|saida_MUX[0]~0_combout\ $end
$var wire 1 o! \Processador|decoder|saida[4]~1_combout\ $end
$var wire 1 p! \Processador|decoder|saida[5]~2_combout\ $end
$var wire 1 q! \BLOCO_LEDs|hab_bloco~0_combout\ $end
$var wire 1 r! \BLOCO_LEDs|hab_bloco~1_combout\ $end
$var wire 1 s! \RAM|ram~16_q\ $end
$var wire 1 t! \RAM|ram~570_combout\ $end
$var wire 1 u! \RAM|ram~530_combout\ $end
$var wire 1 v! \RAM|ram~24_q\ $end
$var wire 1 w! \RAM|ram~531_combout\ $end
$var wire 1 x! \RAM|ram~32_q\ $end
$var wire 1 y! \RAM|ram~532_combout\ $end
$var wire 1 z! \RAM|ram~533_combout\ $end
$var wire 1 {! \RAM|ram~563_combout\ $end
$var wire 1 |! \Processador|ULA1|Add0~2\ $end
$var wire 1 }! \Processador|ULA1|Add0~5_sumout\ $end
$var wire 1 ~! \Processador|MUX1|saida_MUX[1]~1_combout\ $end
$var wire 1 !" \RAM|ram~17_q\ $end
$var wire 1 "" \RAM|ram~534_combout\ $end
$var wire 1 #" \RAM|ram~25_q\ $end
$var wire 1 $" \RAM|ram~535_combout\ $end
$var wire 1 %" \RAM|ram~33_q\ $end
$var wire 1 &" \RAM|ram~536_combout\ $end
$var wire 1 '" \RAM|ram~537_combout\ $end
$var wire 1 (" \RAM|ram~564_combout\ $end
$var wire 1 )" \Processador|ULA1|Add0~6\ $end
$var wire 1 *" \Processador|ULA1|Add0~9_sumout\ $end
$var wire 1 +" \Processador|MUX1|saida_MUX[2]~2_combout\ $end
$var wire 1 ," \RAM|ram~18_q\ $end
$var wire 1 -" \RAM|ram~538_combout\ $end
$var wire 1 ." \RAM|ram~26_q\ $end
$var wire 1 /" \RAM|ram~539_combout\ $end
$var wire 1 0" \RAM|ram~34_q\ $end
$var wire 1 1" \RAM|ram~540_combout\ $end
$var wire 1 2" \RAM|ram~541_combout\ $end
$var wire 1 3" \RAM|ram~565_combout\ $end
$var wire 1 4" \Processador|ULA1|Add0~10\ $end
$var wire 1 5" \Processador|ULA1|Add0~13_sumout\ $end
$var wire 1 6" \Processador|MUX1|saida_MUX[3]~3_combout\ $end
$var wire 1 7" \RAM|ram~19_q\ $end
$var wire 1 8" \RAM|ram~542_combout\ $end
$var wire 1 9" \RAM|ram~27_q\ $end
$var wire 1 :" \RAM|ram~543_combout\ $end
$var wire 1 ;" \RAM|ram~35_q\ $end
$var wire 1 <" \RAM|ram~544_combout\ $end
$var wire 1 =" \RAM|ram~545_combout\ $end
$var wire 1 >" \RAM|ram~566_combout\ $end
$var wire 1 ?" \Processador|ULA1|Add0~14\ $end
$var wire 1 @" \Processador|ULA1|Add0~17_sumout\ $end
$var wire 1 A" \Processador|MUX1|saida_MUX[4]~4_combout\ $end
$var wire 1 B" \RAM|ram~20_q\ $end
$var wire 1 C" \RAM|ram~546_combout\ $end
$var wire 1 D" \RAM|ram~28_q\ $end
$var wire 1 E" \RAM|ram~547_combout\ $end
$var wire 1 F" \RAM|ram~36_q\ $end
$var wire 1 G" \RAM|ram~548_combout\ $end
$var wire 1 H" \RAM|ram~549_combout\ $end
$var wire 1 I" \RAM|ram~567_combout\ $end
$var wire 1 J" \Processador|ULA1|Add0~18\ $end
$var wire 1 K" \Processador|ULA1|Add0~21_sumout\ $end
$var wire 1 L" \Processador|MUX1|saida_MUX[5]~5_combout\ $end
$var wire 1 M" \RAM|ram~21_q\ $end
$var wire 1 N" \RAM|ram~550_combout\ $end
$var wire 1 O" \RAM|ram~29_q\ $end
$var wire 1 P" \RAM|ram~551_combout\ $end
$var wire 1 Q" \RAM|ram~37_q\ $end
$var wire 1 R" \RAM|ram~552_combout\ $end
$var wire 1 S" \RAM|ram~553_combout\ $end
$var wire 1 T" \RAM|ram~568_combout\ $end
$var wire 1 U" \Processador|ULA1|Add0~22\ $end
$var wire 1 V" \Processador|ULA1|Add0~25_sumout\ $end
$var wire 1 W" \Processador|MUX1|saida_MUX[6]~6_combout\ $end
$var wire 1 X" \RAM|ram~22_q\ $end
$var wire 1 Y" \RAM|ram~554_combout\ $end
$var wire 1 Z" \RAM|ram~30_q\ $end
$var wire 1 [" \RAM|ram~555_combout\ $end
$var wire 1 \" \RAM|ram~38_q\ $end
$var wire 1 ]" \RAM|ram~556_combout\ $end
$var wire 1 ^" \RAM|ram~557_combout\ $end
$var wire 1 _" \RAM|ram~569_combout\ $end
$var wire 1 `" \Processador|ULA1|Add0~26\ $end
$var wire 1 a" \Processador|ULA1|Add0~29_sumout\ $end
$var wire 1 b" \Processador|MUX1|saida_MUX[7]~7_combout\ $end
$var wire 1 c" \BLOCO_LEDs|FF_8|DOUT~0_combout\ $end
$var wire 1 d" \BLOCO_LEDs|FF_8|DOUT~q\ $end
$var wire 1 e" \BLOCO_LEDs|FF_9|DOUT~0_combout\ $end
$var wire 1 f" \BLOCO_LEDs|FF_9|DOUT~q\ $end
$var wire 1 g" \BLOCO_LEDs|REG_07|DOUT\ [7] $end
$var wire 1 h" \BLOCO_LEDs|REG_07|DOUT\ [6] $end
$var wire 1 i" \BLOCO_LEDs|REG_07|DOUT\ [5] $end
$var wire 1 j" \BLOCO_LEDs|REG_07|DOUT\ [4] $end
$var wire 1 k" \BLOCO_LEDs|REG_07|DOUT\ [3] $end
$var wire 1 l" \BLOCO_LEDs|REG_07|DOUT\ [2] $end
$var wire 1 m" \BLOCO_LEDs|REG_07|DOUT\ [1] $end
$var wire 1 n" \BLOCO_LEDs|REG_07|DOUT\ [0] $end
$var wire 1 o" \Processador|REGA|DOUT\ [7] $end
$var wire 1 p" \Processador|REGA|DOUT\ [6] $end
$var wire 1 q" \Processador|REGA|DOUT\ [5] $end
$var wire 1 r" \Processador|REGA|DOUT\ [4] $end
$var wire 1 s" \Processador|REGA|DOUT\ [3] $end
$var wire 1 t" \Processador|REGA|DOUT\ [2] $end
$var wire 1 u" \Processador|REGA|DOUT\ [1] $end
$var wire 1 v" \Processador|REGA|DOUT\ [0] $end
$var wire 1 w" \Processador|PC|DOUT\ [8] $end
$var wire 1 x" \Processador|PC|DOUT\ [7] $end
$var wire 1 y" \Processador|PC|DOUT\ [6] $end
$var wire 1 z" \Processador|PC|DOUT\ [5] $end
$var wire 1 {" \Processador|PC|DOUT\ [4] $end
$var wire 1 |" \Processador|PC|DOUT\ [3] $end
$var wire 1 }" \Processador|PC|DOUT\ [2] $end
$var wire 1 ~" \Processador|PC|DOUT\ [1] $end
$var wire 1 !# \Processador|PC|DOUT\ [0] $end
$var wire 1 "# \RAM|ALT_INV_ram~540_combout\ $end
$var wire 1 ## \RAM|ALT_INV_ram~34_q\ $end
$var wire 1 $# \RAM|ALT_INV_ram~539_combout\ $end
$var wire 1 %# \RAM|ALT_INV_ram~26_q\ $end
$var wire 1 &# \RAM|ALT_INV_ram~538_combout\ $end
$var wire 1 '# \RAM|ALT_INV_ram~18_q\ $end
$var wire 1 (# \RAM|ALT_INV_ram~537_combout\ $end
$var wire 1 )# \RAM|ALT_INV_ram~536_combout\ $end
$var wire 1 *# \RAM|ALT_INV_ram~33_q\ $end
$var wire 1 +# \RAM|ALT_INV_ram~535_combout\ $end
$var wire 1 ,# \RAM|ALT_INV_ram~25_q\ $end
$var wire 1 -# \RAM|ALT_INV_ram~534_combout\ $end
$var wire 1 .# \RAM|ALT_INV_ram~17_q\ $end
$var wire 1 /# \RAM|ALT_INV_ram~533_combout\ $end
$var wire 1 0# \RAM|ALT_INV_ram~532_combout\ $end
$var wire 1 1# \RAM|ALT_INV_ram~32_q\ $end
$var wire 1 2# \RAM|ALT_INV_ram~531_combout\ $end
$var wire 1 3# \RAM|ALT_INV_ram~24_q\ $end
$var wire 1 4# \RAM|ALT_INV_ram~530_combout\ $end
$var wire 1 5# \RAM|ALT_INV_ram~16_q\ $end
$var wire 1 6# \RAM|ALT_INV_ram~529_combout\ $end
$var wire 1 7# \RAM|ALT_INV_ram~528_combout\ $end
$var wire 1 8# \RAM|ALT_INV_ram~23_q\ $end
$var wire 1 9# \RAM|ALT_INV_ram~527_combout\ $end
$var wire 1 :# \RAM|ALT_INV_ram~31_q\ $end
$var wire 1 ;# \RAM|ALT_INV_ram~15_q\ $end
$var wire 1 <# \Processador|decoder|ALT_INV_saida[6]~0_combout\ $end
$var wire 1 =# \Processador|ROM1|ALT_INV_memROM~13_combout\ $end
$var wire 1 ># \Processador|ROM1|ALT_INV_memROM~12_combout\ $end
$var wire 1 ?# \Processador|ROM1|ALT_INV_memROM~11_combout\ $end
$var wire 1 @# \Processador|ROM1|ALT_INV_memROM~10_combout\ $end
$var wire 1 A# \BLOCO_LEDs|ALT_INV_hab_bloco~0_combout\ $end
$var wire 1 B# \Processador|ROM1|ALT_INV_memROM~9_combout\ $end
$var wire 1 C# \Processador|ROM1|ALT_INV_memROM~8_combout\ $end
$var wire 1 D# \RAM|ALT_INV_process_0~0_combout\ $end
$var wire 1 E# \Processador|ROM1|ALT_INV_memROM~7_combout\ $end
$var wire 1 F# \Processador|ROM1|ALT_INV_memROM~6_combout\ $end
$var wire 1 G# \Processador|ROM1|ALT_INV_memROM~5_combout\ $end
$var wire 1 H# \Processador|ROM1|ALT_INV_memROM~4_combout\ $end
$var wire 1 I# \Processador|ROM1|ALT_INV_memROM~3_combout\ $end
$var wire 1 J# \Processador|ROM1|ALT_INV_memROM~2_combout\ $end
$var wire 1 K# \Processador|ROM1|ALT_INV_memROM~1_combout\ $end
$var wire 1 L# \Processador|ROM1|ALT_INV_memROM~0_combout\ $end
$var wire 1 M# \BLOCO_LEDs|FF_9|ALT_INV_DOUT~q\ $end
$var wire 1 N# \BLOCO_LEDs|FF_8|ALT_INV_DOUT~q\ $end
$var wire 1 O# \Processador|REGA|ALT_INV_DOUT\ [7] $end
$var wire 1 P# \Processador|REGA|ALT_INV_DOUT\ [6] $end
$var wire 1 Q# \Processador|REGA|ALT_INV_DOUT\ [5] $end
$var wire 1 R# \Processador|REGA|ALT_INV_DOUT\ [4] $end
$var wire 1 S# \Processador|REGA|ALT_INV_DOUT\ [3] $end
$var wire 1 T# \Processador|REGA|ALT_INV_DOUT\ [2] $end
$var wire 1 U# \Processador|REGA|ALT_INV_DOUT\ [1] $end
$var wire 1 V# \Processador|REGA|ALT_INV_DOUT\ [0] $end
$var wire 1 W# \Processador|PC|ALT_INV_DOUT\ [8] $end
$var wire 1 X# \Processador|PC|ALT_INV_DOUT\ [7] $end
$var wire 1 Y# \Processador|PC|ALT_INV_DOUT\ [6] $end
$var wire 1 Z# \Processador|PC|ALT_INV_DOUT\ [5] $end
$var wire 1 [# \Processador|PC|ALT_INV_DOUT\ [4] $end
$var wire 1 \# \Processador|PC|ALT_INV_DOUT\ [3] $end
$var wire 1 ]# \Processador|PC|ALT_INV_DOUT\ [2] $end
$var wire 1 ^# \Processador|PC|ALT_INV_DOUT\ [1] $end
$var wire 1 _# \Processador|PC|ALT_INV_DOUT\ [0] $end
$var wire 1 `# \RAM|ALT_INV_ram~570_combout\ $end
$var wire 1 a# \Processador|ROM1|ALT_INV_memROM~15_combout\ $end
$var wire 1 b# \RAM|ALT_INV_ram~569_combout\ $end
$var wire 1 c# \RAM|ALT_INV_ram~568_combout\ $end
$var wire 1 d# \RAM|ALT_INV_ram~567_combout\ $end
$var wire 1 e# \RAM|ALT_INV_ram~566_combout\ $end
$var wire 1 f# \RAM|ALT_INV_ram~565_combout\ $end
$var wire 1 g# \RAM|ALT_INV_ram~564_combout\ $end
$var wire 1 h# \RAM|ALT_INV_ram~563_combout\ $end
$var wire 1 i# \RAM|ALT_INV_ram~561_combout\ $end
$var wire 1 j# \RAM|ALT_INV_ram~559_combout\ $end
$var wire 1 k# \RAM|ALT_INV_ram~558_combout\ $end
$var wire 1 l# \Processador|decoder|ALT_INV_Equal10~1_combout\ $end
$var wire 1 m# \RAM|ALT_INV_ram~557_combout\ $end
$var wire 1 n# \RAM|ALT_INV_ram~556_combout\ $end
$var wire 1 o# \RAM|ALT_INV_ram~38_q\ $end
$var wire 1 p# \RAM|ALT_INV_ram~555_combout\ $end
$var wire 1 q# \RAM|ALT_INV_ram~30_q\ $end
$var wire 1 r# \RAM|ALT_INV_ram~554_combout\ $end
$var wire 1 s# \RAM|ALT_INV_ram~22_q\ $end
$var wire 1 t# \RAM|ALT_INV_ram~553_combout\ $end
$var wire 1 u# \RAM|ALT_INV_ram~552_combout\ $end
$var wire 1 v# \RAM|ALT_INV_ram~37_q\ $end
$var wire 1 w# \RAM|ALT_INV_ram~551_combout\ $end
$var wire 1 x# \RAM|ALT_INV_ram~29_q\ $end
$var wire 1 y# \RAM|ALT_INV_ram~550_combout\ $end
$var wire 1 z# \RAM|ALT_INV_ram~21_q\ $end
$var wire 1 {# \RAM|ALT_INV_ram~549_combout\ $end
$var wire 1 |# \RAM|ALT_INV_ram~548_combout\ $end
$var wire 1 }# \RAM|ALT_INV_ram~36_q\ $end
$var wire 1 ~# \RAM|ALT_INV_ram~547_combout\ $end
$var wire 1 !$ \RAM|ALT_INV_ram~28_q\ $end
$var wire 1 "$ \RAM|ALT_INV_ram~546_combout\ $end
$var wire 1 #$ \RAM|ALT_INV_ram~20_q\ $end
$var wire 1 $$ \RAM|ALT_INV_ram~545_combout\ $end
$var wire 1 %$ \RAM|ALT_INV_ram~544_combout\ $end
$var wire 1 &$ \RAM|ALT_INV_ram~35_q\ $end
$var wire 1 '$ \RAM|ALT_INV_ram~543_combout\ $end
$var wire 1 ($ \RAM|ALT_INV_ram~27_q\ $end
$var wire 1 )$ \RAM|ALT_INV_ram~542_combout\ $end
$var wire 1 *$ \RAM|ALT_INV_ram~19_q\ $end
$var wire 1 +$ \RAM|ALT_INV_ram~541_combout\ $end
$upscope $end
$upscope $end
$enddefinitions $end
#0
$dumpvars
0!
0F
1G
xH
1I
1J
1K
1L
1M
1N
0O
xt
xu
xv
0w
0x
0y
0z
0{
0|
0}
0~
0!!
0"!
0#!
0$!
0%!
1&!
0'!
0(!
0)!
0*!
0+!
0,!
0-!
0.!
0/!
00!
01!
02!
03!
04!
05!
06!
07!
08!
09!
0:!
0;!
0<!
0=!
0>!
0?!
1@!
1A!
1B!
0C!
0D!
0E!
0F!
0G!
0H!
0I!
0J!
0K!
1L!
1M!
1N!
1O!
1P!
0Q!
0R!
0S!
0T!
1U!
1V!
0W!
0X!
1Y!
1Z!
1[!
1\!
0]!
x^!
0_!
0`!
0a!
0b!
0c!
0d!
0e!
0f!
0g!
0h!
0i!
0j!
0k!
1l!
1m!
1n!
1o!
1p!
0q!
0r!
0s!
1t!
0u!
0v!
0w!
0x!
0y!
0z!
0{!
0|!
0}!
1~!
0!"
0""
0#"
0$"
0%"
0&"
0'"
0("
0)"
0*"
1+"
0,"
0-"
0."
0/"
00"
01"
02"
03"
04"
05"
16"
07"
08"
09"
0:"
0;"
0<"
0="
0>"
0?"
0@"
1A"
0B"
0C"
0D"
0E"
0F"
0G"
0H"
0I"
0J"
0K"
1L"
0M"
0N"
0O"
0P"
0Q"
0R"
0S"
0T"
0U"
0V"
1W"
0X"
0Y"
0Z"
0["
0\"
0]"
0^"
0_"
0`"
0a"
1b"
0c"
0d"
0e"
0f"
1"#
1##
1$#
1%#
1&#
1'#
1(#
1)#
1*#
1+#
1,#
1-#
1.#
1/#
10#
11#
12#
13#
14#
15#
16#
17#
18#
19#
1:#
1;#
0<#
0=#
0>#
0?#
0@#
1A#
0B#
1C#
1D#
1E#
1F#
0G#
0H#
0I#
0J#
0K#
0L#
1M#
1N#
0`#
0a#
1b#
1c#
1d#
1e#
1f#
1g#
1h#
1i#
1j#
1k#
1l#
1m#
1n#
1o#
1p#
1q#
1r#
1s#
1t#
1u#
1v#
1w#
1x#
1y#
1z#
1{#
1|#
1}#
1~#
1!$
1"$
1#$
1$$
1%$
1&$
1'$
1($
1)$
1*$
1+$
xP
xQ
xR
xS
0T
0U
0V
0W
0X
0Y
0Z
0[
0\
0]
0^
0_
0`
0a
0b
0c
0d
0e
0f
0g
0h
1i
0j
0k
0l
0m
0n
0o
0p
0q
0r
0s
0g"
0h"
0i"
0j"
0k"
0l"
0m"
0n"
0o"
0p"
0q"
0r"
0s"
0t"
0u"
0v"
0w"
0x"
0y"
0z"
0{"
0|"
0}"
0~"
0!#
1O#
1P#
1Q#
1R#
1S#
1T#
1U#
1V#
1W#
1X#
1Y#
1Z#
1[#
1\#
1]#
1^#
1_#
x"
x#
x$
x%
0&
0'
0(
0)
0*
0+
0,
0-
0.
0/
00
01
02
03
04
05
06
07
18
09
0:
0;
0<
0=
0>
0?
0@
0A
0B
0C
0D
0E
$end
#10000
1!
1O
19!
1!#
1v"
1u"
1t"
1s"
1r"
1q"
1p"
1o"
0O#
0P#
0Q#
0R#
0S#
0T#
0U#
0V#
0_#
0[!
1:!
0@!
0B!
1J!
0M!
0O!
0U!
0Y!
0m!
1|!
1}!
1*"
15"
1@"
1K"
1V"
1a"
1a#
1?#
1K#
1B#
0C#
1H#
1G#
0}!
1)"
1;!
0A!
0\!
1a!
0p!
1K!
0N!
1q!
0P!
0V!
0Z!
0*"
14"
1I#
1>#
1J#
0A#
1=#
0D#
1<#
1@#
0&!
1*"
0+"
0@"
1J"
0A"
0V"
1`"
0W"
0K"
1U"
0L"
0a"
0b"
1}!
0~!
06"
1_!
1m!
0n!
1r!
1?"
0i
1'!
08
1@"
1V"
1a"
1K"
1h
17
#20000
0!
0O
09!
#30000
1!
1O
19!
1~"
0!#
1n"
1m"
1l"
1k"
1j"
1i"
1h"
1g"
1_#
0^#
0;!
1Q!
1[!
0:!
1Y!
0_!
1f!
0i#
0a#
16!
15!
14!
13!
12!
11!
10!
1/!
1;!
0Q!
1R!
1Z!
1g!
1l
1m
1n
1o
1p
1q
1r
1s
0R!
0I#
1/
1.
1-
1,
1+
1*
1)
1(
1&!
0'!
0g!
0r!
1c"
1i
0h
1(!
1'!
18
07
1g
1h
0(!
17
16
0g
06
#40000
0!
0O
09!
#50000
1!
1O
19!
1!#
1d"
0N#
0_#
0[!
1:!
1O!
0Y!
1b!
0f!
1i#
0j#
1a#
0K#
17!
0;!
1Q!
1P!
0Z!
1k
1R!
1I#
0J#
1'
0&!
1e"
0i
0'!
08
0h
1(!
07
1g
16
#60000
0!
0O
09!
#70000
1!
1O
19!
0~"
1}"
0!#
1f"
0M#
1_#
0]#
1^#
1;!
0Q!
0R!
1S!
1[!
0:!
1B!
0J!
0O!
1Y!
0b!
1f!
0i#
1j#
0a#
1K#
1C#
0H#
18!
0;!
1T!
1R!
0S!
1\!
0a!
1p!
0K!
0q!
0P!
1Z!
1j
0T!
0I#
1J#
1A#
1D#
0<#
1&
1&!
0(!
1'!
0m!
1n!
1i
0g
1h
1(!
1)!
0'!
18
17
06
1g
1f
0h
0)!
07
16
15
0f
05
#80000
0!
0O
09!
#90000
1!
1O
19!
1!#
0u"
0t"
0s"
0r"
0q"
0p"
0o"
1O#
1P#
1Q#
1R#
1S#
1T#
1U#
0_#
0[!
1:!
0B!
0Y!
0f!
0}!
0*"
05"
0@"
0K"
0V"
0a"
1i#
1a#
1H#
1;!
0\!
1a!
0p!
0Z!
1I#
0D#
1<#
0&!
1_!
1m!
0n!
0i
1'!
08
1h
17
#100000
0!
0O
09!
#110000
1!
1O
19!
1~"
0!#
1_#
0^#
0;!
1Q!
1[!
0:!
1B!
1C!
1D!
0_!
0E#
0F#
0H#
1;!
0Q!
0R!
1S!
1]!
0a!
0o!
1p!
1T!
1R!
0S!
1D#
0l#
1&!
0'!
0l!
0m!
1}!
0)"
1*"
04"
15"
0?"
1@"
0J"
1K"
0U"
1V"
0`"
1a"
0T!
1i
0h
0(!
1'!
18
07
0a"
0V"
0K"
0@"
05"
0*"
1m!
0|!
0g
1h
1(!
1)!
17
06
0}!
1g
1f
0)!
16
15
0f
05
#120000
0!
0O
09!
#130000
1!
1O
19!
1!#
0_#
0[!
1:!
0B!
0C!
0D!
1Y!
1f!
0i#
0a#
1E#
1F#
1H#
0;!
1Q!
0]!
1a!
1o!
0p!
1Z!
0R!
1S!
0I#
0D#
1l#
0&!
1l!
1}!
1*"
15"
1@"
1K"
1V"
1a"
0m!
1|!
1T!
0i
0'!
08
0}!
1)"
1m!
0h
0(!
07
0*"
14"
0g
1)!
06
05"
1?"
1f
15
0@"
1J"
0K"
1U"
0V"
1`"
0a"
#140000
0!
0O
09!
#150000
1!
1O
19!
0~"
0}"
1|"
0!#
1_#
0\#
1]#
1^#
1;!
0Q!
1R!
0S!
0T!
1W!
1[!
0:!
1D!
0Y!
0f!
1i#
1a#
0E#
0;!
1X!
1T!
0W!
0R!
0a!
1p!
0Z!
0X!
1I#
1D#
1&!
0)!
1(!
1'!
1i
0f
1g
1h
0(!
1)!
1*!
0'!
18
17
16
05
0g
1f
1e
0h
0*!
07
06
15
14
0e
04
#160000
0!
0O
09!
#170000
1!
1O
19!
1!#
0v"
1V#
0_#
0[!
1:!
0D!
1J!
1Y!
1f!
0m!
0i#
0a#
0C#
1E#
1;!
1a!
0p!
1K!
1q!
1Z!
0I#
0A#
0D#
0&!
0c"
0i
1'!
08
1h
17
#180000
0!
0O
09!
