Aulas_Fon/aula4/simulation/qsim/aula4.msim.vcd
$comment
	File created using the following command:
		vcd file aula4.msim.vcd -direction
$end
$date
	Tue Mar 14 13:34:29 2023
$end
$version
	ModelSim Version 2020.1
$end
$timescale
	1ps
$end

$scope module aula4_vhd_vec_tst $end
$var wire 1 ! CLOCK_50 $end
$var wire 1 " KEY [3] $end
$var wire 1 # KEY [2] $end
$var wire 1 $ KEY [1] $end
$var wire 1 % KEY [0] $end
$var wire 1 & LEDR [7] $end
$var wire 1 ' LEDR [6] $end
$var wire 1 ( LEDR [5] $end
$var wire 1 ) LEDR [4] $end
$var wire 1 * LEDR [3] $end
$var wire 1 + LEDR [2] $end
$var wire 1 , LEDR [1] $end
$var wire 1 - LEDR [0] $end
$var wire 1 . PC_OUT [2] $end
$var wire 1 / PC_OUT [1] $end
$var wire 1 0 PC_OUT [0] $end
$var wire 1 1 SW [8] $end
$var wire 1 2 SW [7] $end
$var wire 1 3 SW [6] $end
$var wire 1 4 SW [5] $end
$var wire 1 5 SW [4] $end
$var wire 1 6 SW [3] $end
$var wire 1 7 SW [2] $end
$var wire 1 8 SW [1] $end
$var wire 1 9 SW [0] $end

$scope module i1 $end
$var wire 1 : gnd $end
$var wire 1 ; vcc $end
$var wire 1 < unknown $end
$var wire 1 = devoe $end
$var wire 1 > devclrn $end
$var wire 1 ? devpor $end
$var wire 1 @ ww_devoe $end
$var wire 1 A ww_devclrn $end
$var wire 1 B ww_devpor $end
$var wire 1 C ww_CLOCK_50 $end
$var wire 1 D ww_KEY [3] $end
$var wire 1 E ww_KEY [2] $end
$var wire 1 F ww_KEY [1] $end
$var wire 1 G ww_KEY [0] $end
$var wire 1 H ww_SW [8] $end
$var wire 1 I ww_SW [7] $end
$var wire 1 J ww_SW [6] $end
$var wire 1 K ww_SW [5] $end
$var wire 1 L ww_SW [4] $end
$var wire 1 M ww_SW [3] $end
$var wire 1 N ww_SW [2] $end
$var wire 1 O ww_SW [1] $end
$var wire 1 P ww_SW [0] $end
$var wire 1 Q ww_PC_OUT [2] $end
$var wire 1 R ww_PC_OUT [1] $end
$var wire 1 S ww_PC_OUT [0] $end
$var wire 1 T ww_LEDR [7] $end
$var wire 1 U ww_LEDR [6] $end
$var wire 1 V ww_LEDR [5] $end
$var wire 1 W ww_LEDR [4] $end
$var wire 1 X ww_LEDR [3] $end
$var wire 1 Y ww_LEDR [2] $end
$var wire 1 Z ww_LEDR [1] $end
$var wire 1 [ ww_LEDR [0] $end
$var wire 1 \ \CLOCK_50~input_o\ $end
$var wire 1 ] \KEY[1]~input_o\ $end
$var wire 1 ^ \KEY[2]~input_o\ $end
$var wire 1 _ \KEY[3]~input_o\ $end
$var wire 1 ` \SW[0]~output_o\ $end
$var wire 1 a \SW[1]~output_o\ $end
$var wire 1 b \SW[2]~output_o\ $end
$var wire 1 c \SW[3]~output_o\ $end
$var wire 1 d \SW[4]~output_o\ $end
$var wire 1 e \SW[5]~output_o\ $end
$var wire 1 f \SW[6]~output_o\ $end
$var wire 1 g \SW[7]~output_o\ $end
$var wire 1 h \SW[8]~output_o\ $end
$var wire 1 i \PC_OUT[0]~output_o\ $end
$var wire 1 j \PC_OUT[1]~output_o\ $end
$var wire 1 k \PC_OUT[2]~output_o\ $end
$var wire 1 l \LEDR[0]~output_o\ $end
$var wire 1 m \LEDR[1]~output_o\ $end
$var wire 1 n \LEDR[2]~output_o\ $end
$var wire 1 o \LEDR[3]~output_o\ $end
$var wire 1 p \LEDR[4]~output_o\ $end
$var wire 1 q \LEDR[5]~output_o\ $end
$var wire 1 r \LEDR[6]~output_o\ $end
$var wire 1 s \LEDR[7]~output_o\ $end
$var wire 1 t \KEY[0]~input_o\ $end
$var wire 1 u \PC|DOUT[0]~1_combout\ $end
$var wire 1 v \ROM1|memROM~4_combout\ $end
$var wire 1 w \PC|DOUT[2]~0_combout\ $end
$var wire 1 x \ROM1|memROM~0_combout\ $end
$var wire 1 y \ROM1|memROM~1_combout\ $end
$var wire 1 z \ROM1|memROM~2_combout\ $end
$var wire 1 { \ROM1|memROM~3_combout\ $end
$var wire 1 | \RAM|ram~89_combout\ $end
$var wire 1 } \RAM|ram~17_q\ $end
$var wire 1 ~ \RAM|ram~90_combout\ $end
$var wire 1 !! \RAM|ram~25_q\ $end
$var wire 1 "! \RAM|ram~81_combout\ $end
$var wire 1 #! \ULA1|Add0~34_cout\ $end
$var wire 1 $! \ULA1|Add0~1_sumout\ $end
$var wire 1 %! \MUX1|saida_MUX[0]~0_combout\ $end
$var wire 1 &! \decoder|saida[1]~0_combout\ $end
$var wire 1 '! \decoder|saida[2]~1_combout\ $end
$var wire 1 (! \RAM|ram~18_q\ $end
$var wire 1 )! \RAM|ram~26_q\ $end
$var wire 1 *! \RAM|ram~82_combout\ $end
$var wire 1 +! \ULA1|Add0~2\ $end
$var wire 1 ,! \ULA1|Add0~5_sumout\ $end
$var wire 1 -! \MUX1|saida_MUX[1]~1_combout\ $end
$var wire 1 .! \RAM|ram~19_q\ $end
$var wire 1 /! \RAM|ram~27_q\ $end
$var wire 1 0! \RAM|ram~83_combout\ $end
$var wire 1 1! \ULA1|Add0~6\ $end
$var wire 1 2! \ULA1|Add0~9_sumout\ $end
$var wire 1 3! \MUX1|saida_MUX[2]~2_combout\ $end
$var wire 1 4! \RAM|ram~20_q\ $end
$var wire 1 5! \RAM|ram~28_q\ $end
$var wire 1 6! \RAM|ram~84_combout\ $end
$var wire 1 7! \ULA1|Add0~10\ $end
$var wire 1 8! \ULA1|Add0~13_sumout\ $end
$var wire 1 9! \MUX1|saida_MUX[3]~3_combout\ $end
$var wire 1 :! \RAM|ram~21_q\ $end
$var wire 1 ;! \RAM|ram~29_q\ $end
$var wire 1 <! \RAM|ram~85_combout\ $end
$var wire 1 =! \ULA1|Add0~14\ $end
$var wire 1 >! \ULA1|Add0~17_sumout\ $end
$var wire 1 ?! \MUX1|saida_MUX[4]~4_combout\ $end
$var wire 1 @! \RAM|ram~22_q\ $end
$var wire 1 A! \RAM|ram~30_q\ $end
$var wire 1 B! \RAM|ram~86_combout\ $end
$var wire 1 C! \ULA1|Add0~18\ $end
$var wire 1 D! \ULA1|Add0~21_sumout\ $end
$var wire 1 E! \MUX1|saida_MUX[5]~5_combout\ $end
$var wire 1 F! \RAM|ram~23_q\ $end
$var wire 1 G! \RAM|ram~31_q\ $end
$var wire 1 H! \RAM|ram~87_combout\ $end
$var wire 1 I! \ULA1|Add0~22\ $end
$var wire 1 J! \ULA1|Add0~25_sumout\ $end
$var wire 1 K! \MUX1|saida_MUX[6]~6_combout\ $end
$var wire 1 L! \RAM|ram~24_q\ $end
$var wire 1 M! \RAM|ram~32_q\ $end
$var wire 1 N! \RAM|ram~88_combout\ $end
$var wire 1 O! \ULA1|Add0~26\ $end
$var wire 1 P! \ULA1|Add0~29_sumout\ $end
$var wire 1 Q! \MUX1|saida_MUX[7]~7_combout\ $end
$var wire 1 R! \PC|DOUT\ [2] $end
$var wire 1 S! \PC|DOUT\ [1] $end
$var wire 1 T! \PC|DOUT\ [0] $end
$var wire 1 U! \REGA|DOUT\ [7] $end
$var wire 1 V! \REGA|DOUT\ [6] $end
$var wire 1 W! \REGA|DOUT\ [5] $end
$var wire 1 X! \REGA|DOUT\ [4] $end
$var wire 1 Y! \REGA|DOUT\ [3] $end
$var wire 1 Z! \REGA|DOUT\ [2] $end
$var wire 1 [! \REGA|DOUT\ [1] $end
$var wire 1 \! \REGA|DOUT\ [0] $end
$var wire 1 ]! \PC|ALT_INV_DOUT\ [2] $end
$var wire 1 ^! \PC|ALT_INV_DOUT\ [1] $end
$var wire 1 _! \PC|ALT_INV_DOUT\ [0] $end
$var wire 1 `! \REGA|ALT_INV_DOUT\ [7] $end
$var wire 1 a! \REGA|ALT_INV_DOUT\ [6] $end
$var wire 1 b! \REGA|ALT_INV_DOUT\ [5] $end
$var wire 1 c! \REGA|ALT_INV_DOUT\ [4] $end
$var wire 1 d! \REGA|ALT_INV_DOUT\ [3] $end
$var wire 1 e! \REGA|ALT_INV_DOUT\ [2] $end
$var wire 1 f! \REGA|ALT_INV_DOUT\ [1] $end
$var wire 1 g! \REGA|ALT_INV_DOUT\ [0] $end
$var wire 1 h! \RAM|ALT_INV_ram~88_combout\ $end
$var wire 1 i! \RAM|ALT_INV_ram~32_q\ $end
$var wire 1 j! \RAM|ALT_INV_ram~24_q\ $end
$var wire 1 k! \RAM|ALT_INV_ram~87_combout\ $end
$var wire 1 l! \RAM|ALT_INV_ram~31_q\ $end
$var wire 1 m! \RAM|ALT_INV_ram~23_q\ $end
$var wire 1 n! \RAM|ALT_INV_ram~86_combout\ $end
$var wire 1 o! \RAM|ALT_INV_ram~30_q\ $end
$var wire 1 p! \RAM|ALT_INV_ram~22_q\ $end
$var wire 1 q! \RAM|ALT_INV_ram~85_combout\ $end
$var wire 1 r! \RAM|ALT_INV_ram~29_q\ $end
$var wire 1 s! \RAM|ALT_INV_ram~21_q\ $end
$var wire 1 t! \RAM|ALT_INV_ram~84_combout\ $end
$var wire 1 u! \RAM|ALT_INV_ram~28_q\ $end
$var wire 1 v! \RAM|ALT_INV_ram~20_q\ $end
$var wire 1 w! \RAM|ALT_INV_ram~83_combout\ $end
$var wire 1 x! \RAM|ALT_INV_ram~27_q\ $end
$var wire 1 y! \RAM|ALT_INV_ram~19_q\ $end
$var wire 1 z! \RAM|ALT_INV_ram~82_combout\ $end
$var wire 1 {! \RAM|ALT_INV_ram~26_q\ $end
$var wire 1 |! \RAM|ALT_INV_ram~18_q\ $end
$var wire 1 }! \RAM|ALT_INV_ram~81_combout\ $end
$var wire 1 ~! \RAM|ALT_INV_ram~25_q\ $end
$var wire 1 !" \RAM|ALT_INV_ram~17_q\ $end
$upscope $end
$upscope $end
$enddefinitions $end
#0
$dumpvars
0!
0:
1;
x<
1=
1>
1?
1@
1A
1B
0C
0\
0]
0^
0_
0`
0a
1b
0c
0d
0e
0f
0g
0h
0i
0j
0k
0l
0m
0n
0o
0p
0q
0r
0s
0t
1u
0v
0w
0x
0y
1z
0{
0|
0}
0~
0!!
0"!
1#!
0$!
0%!
1&!
1'!
0(!
0)!
0*!
1+!
0,!
0-!
0.!
0/!
00!
11!
12!
13!
04!
05!
06!
07!
18!
09!
0:!
0;!
0<!
0=!
1>!
0?!
0@!
0A!
0B!
0C!
1D!
0E!
0F!
0G!
0H!
0I!
1J!
0K!
0L!
0M!
0N!
0O!
1P!
0Q!
1h!
1i!
1j!
1k!
1l!
1m!
1n!
1o!
1p!
1q!
1r!
1s!
1t!
1u!
1v!
1w!
1x!
1y!
1z!
1{!
1|!
1}!
1~!
1!"
0"
0#
0$
0%
0D
0E
0F
0G
0H
0I
0J
0K
0L
0M
1N
0O
0P
0Q
0R
0S
0T
0U
0V
0W
0X
0Y
0Z
0[
0R!
0S!
0T!
0U!
0V!
0W!
0X!
0Y!
0Z!
0[!
0\!
1]!
1^!
1_!
1`!
1a!
1b!
1c!
1d!
1e!
1f!
1g!
0&
0'
0(
0)
0*
0+
0,
0-
0.
0/
00
01
02
03
04
05
06
17
08
09
$end
#10000
1!
1%
1C
1G
1t
1\
1T!
1Z!
0e!
0_!
0u
1v
1x
0z
1{
1~
0'!
03!
17!
1n
1i
08!
1=!
1Y
1S
0>!
1C!
1+
10
1h
0b
1`
0D!
1I!
1H
0N
1P
19
07
11
0J!
1O!
0P!
#20000
0!
0%
1$
0C
0G
1F
1]
0t
0\
#30000
1!
1%
1C
1G
1t
1\
0T!
1S!
1/!
0x!
0^!
1_!
1u
1y
0{
0~
1$!
0+!
1%!
1'!
1,!
01!
1-!
1j
0i
02!
0,!
1R
0S
00
1/
0h
1a
0H
1O
18
01
#40000
0!
0%
0$
1#
0C
0G
0F
1E
1^
0]
0t
0\
#50000
1!
1%
1C
1G
1t
1\
1T!
1\!
1[!
0Z!
1e!
0f!
0g!
0_!
0u
0v
1w
0x
0y
1{
1|
0%!
0'!
0-!
1+!
11!
12!
07!
0n
1m
1l
1i
18!
0=!
02!
17!
1,!
0Y
1Z
1[
1S
08!
1=!
1>!
0C!
1-
1,
0+
10
1h
0a
0`
1D!
0I!
0>!
1C!
1H
0O
0P
09
08
11
0D!
1I!
1J!
0O!
1P!
0J!
1O!
0P!
#60000
0!
0%
1$
0C
0G
1F
1]
0t
0\
#70000
1!
1%
1C
1G
1t
1\
0T!
0S!
1R!
1}
1(!
0|!
0!"
0]!
1^!
1_!
1u
1x
0|
0#!
0$!
0&!
1'!
0,!
10!
12!
07!
18!
0=!
1>!
0C!
1D!
0I!
1J!
0O!
1P!
0w!
1k
0j
0i
0P!
0J!
0D!
0>!
08!
1$!
0+!
02!
17!
13!
1Q
0R
0S
1,!
01!
00
0/
1.
1`
18!
12!
07!
1P
19
08!
#80000
0!
0%
0$
0#
1"
0C
0G
0F
0E
1D
1_
0^
0]
0t
0\
#90000
1!
1%
1C
1G
1t
1\
1T!
1Z!
0e!
0_!
0u
1v
0x
0{
1"!
1#!
0$!
1+!
1&!
0'!
1*!
0,!
11!
00!
18!
1>!
1D!
1J!
1P!
1w!
0z!
0}!
1n
1i
02!
17!
1,!
1$!
0$!
1%!
0,!
1-!
12!
03!
1Y
1S
08!
1=!
1+
10
0h
0`
0>!
1C!
0H
0P
09
01
0D!
1I!
0J!
1O!
0P!
#100000
0!
0%
1$
0C
0G
1F
1]
0t
0\
#110000
1!
1%
1C
1G
1t
1\
0T!
1S!
0^!
1_!
1u
1j
0i
1R
0S
00
1/
#120000
0!
0%
0$
1#
0C
0G
0F
1E
1^
0]
0t
0\
#130000
1!
1%
1C
1G
1t
1\
1T!
0_!
0u
0v
0w
1i
1S
10
#140000
0!
0%
1$
0C
0G
1F
1]
0t
0\
#150000
1!
1%
1C
1G
1t
1\
0T!
0S!
0R!
1]!
1^!
1_!
1u
1z
0"!
1$!
0%!
1'!
0*!
1,!
0-!
02!
13!
1z!
1}!
0k
0j
0i
0Q
0R
0S
00
0/
0.
1b
1N
17
#160000
0!
0%
0$
0#
0"
0C
0G
0F
0E
0D
0_
0^
0]
0t
0\
#170000
1!
1%
1C
1G
1t
1\
1T!
0\!
0[!
1f!
1g!
0_!
0u
1v
1x
0z
1{
1~
0'!
10!
12!
03!
0$!
0,!
0w!
0m
0l
1i
02!
13!
0Z
0[
1S
0-
0,
10
1h
0b
1`
1H
0N
1P
19
07
11
#180000
0!
0%
1$
0C
0G
1F
1]
0t
0\
#190000
1!
1%
1C
1G
1t
1\
0T!
1S!
0^!
1_!
1u
1y
0{
0~
1$!
0+!
1%!
1'!
1,!
01!
1-!
00!
12!
03!
1w!
1j
0i
02!
0,!
1R
0S
00
1/
0h
1a
0H
1O
18
01
#200000
0!
0%
0$
1#
0C
0G
0F
1E
1^
0]
0t
0\
#210000
1!
1%
1C
1G
1t
1\
1T!
1\!
1[!
0Z!
1e!
0f!
0g!
0_!
0u
0v
1w
0x
0y
1{
1|
1"!
0%!
0'!
1*!
0-!
1+!
11!
12!
07!
0z!
0}!
0n
1m
1l
1i
18!
0=!
02!
17!
1,!
0$!
1%!
0,!
1-!
0Y
1Z
1[
1S
08!
1=!
1>!
0C!
1-
1,
0+
10
1h
0a
0`
1D!
0I!
0>!
1C!
1H
0O
0P
09
08
11
0D!
1I!
1J!
0O!
1P!
0J!
1O!
0P!
#220000
0!
0%
1$
0C
0G
1F
1]
0t
0\
#230000
1!
1%
1C
1G
1t
1\
0T!
0S!
1R!
0]!
1^!
1_!
1u
1x
0|
0"!
0#!
1$!
0&!
1'!
0*!
1,!
10!
12!
07!
18!
0=!
1>!
0C!
1D!
0I!
1J!
0O!
1P!
0w!
1z!
1}!
1k
0j
0i
0P!
0J!
0D!
0>!
08!
0$!
1$!
0+!
0%!
0,!
0-!
02!
17!
13!
1Q
0R
0S
00
0/
1.
1`
18!
1,!
01!
1P
12!
07!
19
08!
#240000
0!
0%
0$
0#
1"
0C
0G
0F
0E
1D
1_
0^
0]
0t
0\
#250000
1!
1%
1C
1G
1t
1\
1T!
1Z!
0e!
0_!
0u
1v
0x
0{
1"!
1#!
0$!
1+!
1&!
0'!
1*!
0,!
11!
00!
18!
1>!
1D!
1J!
1P!
1w!
0z!
0}!
1n
1i
02!
17!
1,!
1$!
0$!
1%!
0,!
1-!
12!
03!
1Y
1S
08!
1=!
1+
10
0h
0`
0>!
1C!
0H
0P
09
01
0D!
1I!
0J!
1O!
0P!
#260000
0!
0%
1$
0C
0G
1F
1]
0t
0\
#270000
1!
1%
1C
1G
1t
1\
0T!
1S!
0^!
1_!
1u
1j
0i
1R
0S
00
1/
#280000
0!
0%
0$
1#
0C
0G
0F
1E
1^
0]
0t
0\
#290000
1!
1%
1C
1G
1t
1\
1T!
0_!
0u
0v
0w
1i
1S
10
#300000
0!
0%
1$
0C
0G
1F
1]
0t
0\
#310000
1!
1%
1C
1G
1t
1\
0T!
0S!
0R!
1]!
1^!
1_!
1u
1z
0"!
1$!
0%!
1'!
0*!
1,!
0-!
02!
13!
1z!
1}!
0k
0j
0i
0Q
0R
0S
00
0/
0.
1b
1N
17
#320000
0!
0%
0$
0#
0"
0C
0G
0F
0E
0D
0_
0^
0]
0t
0\
#330000
1!
1%
1C
1G
1t
1\
1T!
0\!
0[!
1f!
1g!
0_!
0u
1v
1x
0z
1{
1~
0'!
10!
12!
03!
0$!
0,!
0w!
0m
0l
1i
02!
13!
0Z
0[
1S
0-
0,
10
1h
0b
1`
1H
0N
1P
19
07
11
#340000
0!
0%
1$
0C
0G
1F
1]
0t
0\
#350000
1!
1%
1C
1G
1t
1\
0T!
1S!
0^!
1_!
1u
1y
0{
0~
1$!
0+!
1%!
1'!
1,!
01!
1-!
00!
12!
03!
1w!
1j
0i
02!
0,!
1R
0S
00
1/
0h
1a
0H
1O
18
01
#360000
0!
0%
0$
1#
0C
0G
0F
1E
1^
0]
0t
0\
#370000
1!
1%
1C
1G
1t
1\
1T!
1\!
1[!
0Z!
1e!
0f!
0g!
0_!
0u
0v
1w
0x
0y
1{
1|
1"!
0%!
0'!
1*!
0-!
1+!
11!
12!
07!
0z!
0}!
0n
1m
1l
1i
18!
0=!
02!
17!
1,!
0$!
1%!
0,!
1-!
0Y
1Z
1[
1S
08!
1=!
1>!
0C!
1-
1,
0+
10
1h
0a
0`
1D!
0I!
0>!
1C!
1H
0O
0P
09
08
11
0D!
1I!
1J!
0O!
1P!
0J!
1O!
0P!
#380000
0!
0%
1$
0C
0G
1F
1]
0t
0\
#390000
1!
1%
1C
1G
1t
1\
0T!
0S!
1R!
0]!
1^!
1_!
1u
1x
0|
0"!
0#!
1$!
0&!
1'!
0*!
1,!
10!
12!
07!
18!
0=!
1>!
0C!
1D!
0I!
1J!
0O!
1P!
0w!
1z!
1}!
1k
0j
0i
0P!
0J!
0D!
0>!
08!
0$!
1$!
0+!
0%!
0,!
0-!
02!
17!
13!
1Q
0R
0S
00
0/
1.
1`
18!
1,!
01!
1P
12!
07!
19
08!
#400000
0!
0%
0$
0#
1"
0C
0G
0F
0E
1D
1_
0^
0]
0t
0\
#410000
1!
1%
1C
1G
1t
1\
1T!
1Z!
0e!
0_!
0u
1v
0x
0{
1"!
1#!
0$!
1+!
1&!
0'!
1*!
0,!
11!
00!
18!
1>!
1D!
1J!
1P!
1w!
0z!
0}!
1n
1i
02!
17!
1,!
1$!
0$!
1%!
0,!
1-!
12!
03!
1Y
1S
08!
1=!
1+
10
0h
0`
0>!
1C!
0H
0P
09
01
0D!
1I!
0J!
1O!
0P!
#420000
0!
0%
1$
0C
0G
1F
1]
0t
0\
#430000
1!
1%
1C
1G
1t
1\
0T!
1S!
0^!
1_!
1u
1j
0i
1R
0S
00
1/
#440000
0!
0%
0$
1#
0C
0G
0F
1E
1^
0]
0t
0\
#450000
1!
1%
1C
1G
1t
1\
1T!
0_!
0u
0v
0w
1i
1S
10
#460000
0!
0%
1$
0C
0G
1F
1]
0t
0\
#470000
1!
1%
1C
1G
1t
1\
0T!
0S!
0R!
1]!
1^!
1_!
1u
1z
0"!
1$!
0%!
1'!
0*!
1,!
0-!
02!
13!
1z!
1}!
0k
0j
0i
0Q
0R
0S
00
0/
0.
1b
1N
17
#480000
0!
0%
0$
0#
0"
0C
0G
0F
0E
0D
0_
0^
0]
0t
0\
#490000
1!
1%
1C
1G
1t
1\
1T!
0\!
0[!
1f!
1g!
0_!
0u
1v
1x
0z
1{
1~
0'!
10!
12!
03!
0$!
0,!
0w!
0m
0l
1i
02!
13!
0Z
0[
1S
0-
0,
10
1h
0b
1`
1H
0N
1P
19
07
11
#500000
0!
0%
1$
0C
0G
1F
1]
0t
0\
#510000
1!
1%
1C
1G
1t
1\
0T!
1S!
0^!
1_!
1u
1y
0{
0~
1$!
0+!
1%!
1'!
1,!
01!
1-!
00!
12!
03!
1w!
1j
0i
02!
0,!
1R
0S
00
1/
0h
1a
0H
1O
18
01
#520000
0!
0%
0$
1#
0C
0G
0F
1E
1^
0]
0t
0\
#530000
1!
1%
1C
1G
1t
1\
1T!
1\!
1[!
0Z!
1e!
0f!
0g!
0_!
0u
0v
1w
0x
0y
1{
1|
1"!
0%!
0'!
1*!
0-!
1+!
11!
12!
07!
0z!
0}!
0n
1m
1l
1i
18!
0=!
02!
17!
1,!
0$!
1%!
0,!
1-!
0Y
1Z
1[
1S
08!
1=!
1>!
0C!
1-
1,
0+
10
1h
0a
0`
1D!
0I!
0>!
1C!
1H
0O
0P
09
08
11
0D!
1I!
1J!
0O!
1P!
0J!
1O!
0P!
#540000
0!
0%
1$
0C
0G
1F
1]
0t
0\
#550000
1!
1%
1C
1G
1t
1\
0T!
0S!
1R!
0]!
1^!
1_!
1u
1x
0|
0"!
0#!
1$!
0&!
1'!
0*!
1,!
10!
12!
07!
18!
0=!
1>!
0C!
1D!
0I!
1J!
0O!
1P!
0w!
1z!
1}!
1k
0j
0i
0P!
0J!
0D!
0>!
08!
0$!
1$!
0+!
0%!
0,!
0-!
02!
17!
13!
1Q
0R
0S
00
0/
1.
1`
18!
1,!
01!
1P
12!
07!
19
08!
#560000
0!
0%
0$
0#
1"
0C
0G
0F
0E
1D
1_
0^
0]
0t
0\
#570000
1!
1%
1C
1G
1t
1\
1T!
1Z!
0e!
0_!
0u
1v
0x
0{
1"!
1#!
0$!
1+!
1&!
0'!
1*!
0,!
11!
00!
18!
1>!
1D!
1J!
1P!
1w!
0z!
0}!
1n
1i
02!
17!
1,!
1$!
0$!
1%!
0,!
1-!
12!
03!
1Y
1S
08!
1=!
1+
10
0h
0`
0>!
1C!
0H
0P
09
01
0D!
1I!
0J!
1O!
0P!
#580000
0!
0%
1$
0C
0G
1F
1]
0t
0\
#590000
1!
1%
1C
1G
1t
1\
0T!
1S!
0^!
1_!
1u
1j
0i
1R
0S
00
1/
#600000
0!
0%
0$
1#
0C
0G
0F
1E
1^
0]
0t
0\
#610000
1!
1%
1C
1G
1t
1\
1T!
0_!
0u
0v
0w
1i
1S
10
#620000
0!
0%
1$
0C
0G
1F
1]
0t
0\
#630000
1!
1%
1C
1G
1t
1\
0T!
0S!
0R!
1]!
1^!
1_!
1u
1z
0"!
1$!
0%!
1'!
0*!
1,!
0-!
02!
13!
1z!
1}!
0k
0j
0i
0Q
0R
0S
00
0/
0.
1b
1N
17
#640000
0!
0%
0$
0#
0"
0C
0G
0F
0E
0D
0_
0^
0]
0t
0\
#650000
1!
1%
1C
1G
1t
1\
1T!
0\!
0[!
1f!
1g!
0_!
0u
1v
1x
0z
1{
1~
0'!
10!
12!
03!
0$!
0,!
0w!
0m
0l
1i
02!
13!
0Z
0[
1S
0-
0,
10
1h
0b
1`
1H
0N
1P
19
07
11
#660000
0!
0%
1$
0C
0G
1F
1]
0t
0\
#670000
1!
1%
1C
1G
1t
1\
0T!
1S!
0^!
1_!
1u
1y
0{
0~
1$!
0+!
1%!
1'!
1,!
01!
1-!
00!
12!
03!
1w!
1j
0i
02!
0,!
1R
0S
00
1/
0h
1a
0H
1O
18
01
#680000
0!
0%
0$
1#
0C
0G
0F
1E
1^
0]
0t
0\
#690000
1!
1%
1C
1G
1t
1\
1T!
1\!
1[!
0Z!
1e!
0f!
0g!
0_!
0u
0v
1w
0x
0y
1{
1|
1"!
0%!
0'!
1*!
0-!
1+!
11!
12!
07!
0z!
0}!
0n
1m
1l
1i
18!
0=!
02!
17!
1,!
0$!
1%!
0,!
1-!
0Y
1Z
1[
1S
08!
1=!
1>!
0C!
1-
1,
0+
10
1h
0a
0`
1D!
0I!
0>!
1C!
1H
0O
0P
09
08
11
0D!
1I!
1J!
0O!
1P!
0J!
1O!
0P!
#700000
0!
0%
1$
0C
0G
1F
1]
0t
0\
#710000
1!
1%
1C
1G
1t
1\
0T!
0S!
1R!
0]!
1^!
1_!
1u
1x
0|
0"!
0#!
1$!
0&!
1'!
0*!
1,!
10!
12!
07!
18!
0=!
1>!
0C!
1D!
0I!
1J!
0O!
1P!
0w!
1z!
1}!
1k
0j
0i
0P!
0J!
0D!
0>!
08!
0$!
1$!
0+!
0%!
0,!
0-!
02!
17!
13!
1Q
0R
0S
00
0/
1.
1`
18!
1,!
01!
1P
12!
07!
19
08!
#720000
0!
0%
0$
0#
1"
0C
0G
0F
0E
1D
1_
0^
0]
0t
0\
#730000
1!
1%
1C
1G
1t
1\
1T!
1Z!
0e!
0_!
0u
1v
0x
0{
1"!
1#!
0$!
1+!
1&!
0'!
1*!
0,!
11!
00!
18!
1>!
1D!
1J!
1P!
1w!
0z!
0}!
1n
1i
02!
17!
1,!
1$!
0$!
1%!
0,!
1-!
12!
03!
1Y
1S
08!
1=!
1+
10
0h
0`
0>!
1C!
0H
0P
09
01
0D!
1I!
0J!
1O!
0P!
#740000
0!
0%
1$
0C
0G
1F
1]
0t
0\
#750000
1!
1%
1C
1G
1t
1\
0T!
1S!
0^!
1_!
1u
1j
0i
1R
0S
00
1/
#760000
0!
0%
0$
1#
0C
0G
0F
1E
1^
0]
0t
0\
#770000
1!
1%
1C
1G
1t
1\
1T!
0_!
0u
0v
0w
1i
1S
10
#780000
0!
0%
1$
0C
0G
1F
1]
0t
0\
#790000
1!
1%
1C
1G
1t
1\
0T!
0S!
0R!
1]!
1^!
1_!
1u
1z
0"!
1$!
0%!
1'!
0*!
1,!
0-!
02!
13!
1z!
1}!
0k
0j
0i
0Q
0R
0S
00
0/
0.
1b
1N
17
#800000
0!
0%
0$
0#
0"
0C
0G
0F
0E
0D
0_
0^
0]
0t
0\
#810000
1!
1%
1C
1G
1t
1\
1T!
0\!
0[!
1f!
1g!
0_!
0u
1v
1x
0z
1{
1~
0'!
10!
12!
03!
0$!
0,!
0w!
0m
0l
1i
02!
13!
0Z
0[
1S
0-
0,
10
1h
0b
1`
1H
0N
1P
19
07
11
#820000
0!
0%
1$
0C
0G
1F
1]
0t
0\
#830000
1!
1%
1C
1G
1t
1\
0T!
1S!
0^!
1_!
1u
1y
0{
0~
1$!
0+!
1%!
1'!
1,!
01!
1-!
00!
12!
03!
1w!
1j
0i
02!
0,!
1R
0S
00
1/
0h
1a
0H
1O
18
01
#840000
0!
0%
0$
1#
0C
0G
0F
1E
1^
0]
0t
0\
#850000
1!
1%
1C
1G
1t
1\
1T!
1\!
1[!
0Z!
1e!
0f!
0g!
0_!
0u
0v
1w
0x
0y
1{
1|
1"!
0%!
0'!
1*!
0-!
1+!
11!
12!
07!
0z!
0}!
0n
1m
1l
1i
18!
0=!
02!
17!
1,!
0$!
1%!
0,!
1-!
0Y
1Z
1[
1S
08!
1=!
1>!
0C!
1-
1,
0+
10
1h
0a
0`
1D!
0I!
0>!
1C!
1H
0O
0P
09
08
11
0D!
1I!
1J!
0O!
1P!
0J!
1O!
0P!
#860000
0!
0%
1$
0C
0G
1F
1]
0t
0\
#870000
1!
1%
1C
1G
1t
1\
0T!
0S!
1R!
0]!
1^!
1_!
1u
1x
0|
0"!
0#!
1$!
0&!
1'!
0*!
1,!
10!
12!
07!
18!
0=!
1>!
0C!
1D!
0I!
1J!
0O!
1P!
0w!
1z!
1}!
1k
0j
0i
0P!
0J!
0D!
0>!
08!
0$!
1$!
0+!
0%!
0,!
0-!
02!
17!
13!
1Q
0R
0S
00
0/
1.
1`
18!
1,!
01!
1P
12!
07!
19
08!
#880000
0!
0%
0$
0#
1"
0C
0G
0F
0E
1D
1_
0^
0]
0t
0\
#890000
1!
1%
1C
1G
1t
1\
1T!
1Z!
0e!
0_!
0u
1v
0x
0{
1"!
1#!
0$!
1+!
1&!
0'!
1*!
0,!
11!
00!
18!
1>!
1D!
1J!
1P!
1w!
0z!
0}!
1n
1i
02!
17!
1,!
1$!
0$!
1%!
0,!
1-!
12!
03!
1Y
1S
08!
1=!
1+
10
0h
0`
0>!
1C!
0H
0P
09
01
0D!
1I!
0J!
1O!
0P!
#900000
0!
0%
1$
0C
0G
1F
1]
0t
0\
#910000
1!
1%
1C
1G
1t
1\
0T!
1S!
0^!
1_!
1u
1j
0i
1R
0S
00
1/
#920000
0!
0%
0$
1#
0C
0G
0F
1E
1^
0]
0t
0\
#930000
1!
1%
1C
1G
1t
1\
1T!
0_!
0u
0v
0w
1i
1S
10
#940000
0!
0%
1$
0C
0G
1F
1]
0t
0\
#950000
1!
1%
1C
1G
1t
1\
0T!
0S!
0R!
1]!
1^!
1_!
1u
1z
0"!
1$!
0%!
1'!
0*!
1,!
0-!
02!
13!
1z!
1}!
0k
0j
0i
0Q
0R
0S
00
0/
0.
1b
1N
17
#960000
0!
0%
0$
0#
0"
0C
0G
0F
0E
0D
0_
0^
0]
0t
0\
